{
	"i2c_address": 64,
	"left_motor": {
		"channel": 4,
		"forward_pin": "D17",
		"backward_pin": "D18"
	},
	"right_motor": {
		"channel": 5,
		"forward_pin": "D27",
		"backward_pin": "D22"
	},
	"steering": {
		"channel": 1,
		"offset": -0.2855,
		"scale": 0.3645
	},
	"camera_yaw": {
		"channel": 15,
		"offset": -0.101,
		"scale": 0.989
	},
	"camera_pitch": {
		"channel": 14,
		"offset": -0.013,
		"scale": 1.04
	}
}
